﻿{
  "dependencies": {
    "IoT.Ntp": "1.0.0",
    "Microsoft.NETCore.UniversalWindowsPlatform": "5.1.0",
    "Microsoft.OneDriveSDK": "1.1.47",
    "ZXing.Net.Mobile": "2.1.13"
  },
  "frameworks": {
    "uap10.0": {}
  },
  "runtimes": {
    "win10-arm": {},
    "win10-arm-aot": {},
    "win10-x86": {},
    "win10-x86-aot": {},
    "win10-x64": {},
    "win10-x64-aot": {}
  }
}